{
    "project_id": null,
    "document_version": 0,
    "last_run_info": {
        "commit_id": null,
        "issue_id": null,
        "timestamp": null
    },
    "src": {
        "code": {
            "commits_per_month": [],
            "code_lines_per_file": [],
            "code_lines": 0,
            "first_commit": null,
            "last_commit": null
        },
        "pr": {
            "total": 0,
            "opened": 0,
            "closed": 0,
            "approved": 0,
            "rejected": 0
        },
        "branch": {
            "open_abandoned": 0,
            "open_wip": 0,
            "merged": 0
        },
        "social":{
            "stars": 0,
            "watchers": 0,
            "forks": 0,
            "contributors": 0
        }
    },
    "issues": {
        "open": 0,
        "resolved": 0,
        "total": 0,
        "avg_open_issues_lifetime": 0,
        "avg_time_resolution": 0
    }
}
